…
``` r
#Identified the variables you want to remove

varsToRemove = c('funded_amnt_inv', 'term', 'emp_title', 'pymnt_plan', 'earliest_cr_line', 'title', 'zip_code', 'addr_state', 'out_prncp', 'out_prncp_inv', 'total_pymnt_inv', 'total_rec_prncp', 'total_rec_int', 'total_rec_late_fee', 'recoveries', 'collection_recovery_fee', 'last_credit_pull_d', 'policy_code', 'disbursement_method', 'debt_settlement_flag',  'settlement_term', 'application_type')

lcdf <- lcdf %>% select(-all_of(varsToRemove))  

#Drop all the variables with names starting with "hardship" -- as they can cause leakage, unknown at the time when the loan was given.

#First checking before dropping

lcdf %>% select(starts_with("hardship")) 
```

    ## # A tibble: 99,994 × 12
    ##    hardship_flag hards…¹ hards…² hards…³ hards…⁴ hards…⁵ hards…⁶ hards…⁷ hards…⁸
    ##    <fct>         <lgl>   <lgl>   <lgl>   <lgl>   <lgl>   <lgl>   <lgl>   <lgl>  
    ##  1 N             NA      NA      NA      NA      NA      NA      NA      NA     
    ##  2 N             NA      NA      NA      NA      NA      NA      NA      NA     
    ##  3 N             NA      NA      NA      NA      NA      NA      NA      NA     
    ##  4 N             NA      NA      NA      NA      NA      NA      NA      NA     
    ##  5 N             NA      NA      NA      NA      NA      NA      NA      NA     
    ##  6 N             NA      NA      NA      NA      NA      NA      NA      NA     
    ##  7 N             NA      NA      NA      NA      NA      NA      NA      NA     
    ##  8 N             NA      NA      NA      NA      NA      NA      NA      NA     
    ##  9 N             NA      NA      NA      NA      NA      NA      NA      NA     
    ## 10 N             NA      NA      NA      NA      NA      NA      NA      NA     
    ## # … with 99,984 more rows, 3 more variables: hardship_loan_status <lgl>,
    ## #   hardship_payoff_balance_amount <lgl>, hardship_last_payment_amount <lgl>,
    ## #   and abbreviated variable names ¹​hardship_type, ²​hardship_reason,
    ## #   ³​hardship_status, ⁴​hardship_amount, ⁵​hardship_start_date,
    ## #   ⁶​hardship_end_date, ⁷​hardship_length, ⁸​hardship_dpd

``` r
# Dropping 

lcdf <- lcdf %>% select(-starts_with("hardship"))

#similarly, all variable starting with "settlement", these are happening after disbursement 

lcdf %>% select(starts_with('settlement'))
```

    ## # A tibble: 99,994 × 4
    ##    settlement_status settlement_date settlement_amount settlement_percentage
    ##    <lgl>             <lgl>           <lgl>             <lgl>                
    ##  1 NA                NA              NA                NA                   
    ##  2 NA                NA              NA                NA                   
    ##  3 NA                NA              NA                NA                   
    ##  4 NA                NA              NA                NA                   
    ##  5 NA                NA              NA                NA                   
    ##  6 NA                NA              NA                NA                   
    ##  7 NA                NA              NA                NA                   
    ##  8 NA                NA              NA                NA                   
    ##  9 NA                NA              NA                NA                   
    ## 10 NA                NA              NA                NA                   
    ## # … with 99,984 more rows
…
Missing Values

Potential reasons for missing values in different variables? Are some of
the missing values actually ‘zeros’ which are not recorded in the data?
Is missing-ness informative in some way? Are there, for example,
more/less defaults for cases where values on the attribute are missing

``` r
# Dropping columns with all n/a

lcdf %>% select_if(function(x){  all(is.na(x)) } ) # Checking what are those columns 
```

    ## # A tibble: 99,994 × 19
    ##    id    member_id url   desc  annual_…¹ dti_j…² verif…³ revol…⁴ sec_a…⁵ sec_a…⁶
    ##    <lgl> <lgl>     <lgl> <lgl> <lgl>     <lgl>   <lgl>   <lgl>   <lgl>   <lgl>  
    ##  1 NA    NA        NA    NA    NA        NA      NA      NA      NA      NA     
    ##  2 NA    NA        NA    NA    NA        NA      NA      NA      NA      NA     
    ##  3 NA    NA        NA    NA    NA        NA      NA      NA      NA      NA     
    ##  4 NA    NA        NA    NA    NA        NA      NA      NA      NA      NA     
    ##  5 NA    NA        NA    NA    NA        NA      NA      NA      NA      NA     
    ##  6 NA    NA        NA    NA    NA        NA      NA      NA      NA      NA     
    ##  7 NA    NA        NA    NA    NA        NA      NA      NA      NA      NA     
    ##  8 NA    NA        NA    NA    NA        NA      NA      NA      NA      NA     
    ##  9 NA    NA        NA    NA    NA        NA      NA      NA      NA      NA     
    ## 10 NA    NA        NA    NA    NA        NA      NA      NA      NA      NA     
    ## # … with 99,984 more rows, 9 more variables: sec_app_mort_acc <lgl>,
    ## #   sec_app_open_acc <lgl>, sec_app_revol_util <lgl>,
    ## #   sec_app_open_act_il <lgl>, sec_app_num_rev_accts <lgl>,
    ## #   sec_app_chargeoff_within_12_mths <lgl>,
    ## #   sec_app_collections_12_mths_ex_med <lgl>,
    ## #   sec_app_mths_since_last_major_derog <lgl>,
    ## #   orig_projected_additional_accrued_interest <lgl>, and abbreviated …
…
    ## Setting levels: control = Charged Off, case = Fully Paid

    ## Setting direction: controls > cases

``` r
library(broom)

tidy(aucAll[aucAll > 0.5])
```

    ## Warning: 'tidy.numeric' is deprecated.
    ## See help("Deprecated")

    ## # A tibble: 49 × 2
    ##    names              x
    ##    <chr>          <dbl>
    ##  1 loan_amnt      0.521
    ##  2 funded_amnt    0.521
    ##  3 int_rate       0.658
    ##  4 installment    0.507
    ##  5 grade          0.654
    ##  6 sub_grade      0.666
    ##  7 emp_length     0.534
    ##  8 home_ownership 0.555
    ##  9 annual_inc     0.577
    ## 10 loan_status    1    
    ## # … with 39 more rows

``` r
tidy(aucAll) %>% arrange(desc(aucAll))
```

    ## Warning: 'tidy.numeric' is deprecated.
    ## See help("Deprecated")

    ## # A tibble: 69 × 2
    ##    names                    x
    ##    <chr>                <dbl>
    ##  1 loan_status          1    
    ##  2 actualReturn         0.986
    ##  3 annRet               0.966
    ##  4 total_pymnt          0.756
    ##  5 sub_grade            0.666
    ##  6 actualTerm           0.664
    ##  7 int_rate             0.658
    ##  8 grade                0.654
    ##  9 acc_open_past_24mths 0.583
    ## 10 annual_inc           0.577
    ## # … with 59 more rows
